<?xml version="1.0" encoding="UTF-8"?>
<svg width="27px" height="27px" viewBox="0 0 27 27" version="1.1" xmlns="http://www.w3.org/2000/svg" xmlns:xlink="http://www.w3.org/1999/xlink">
    <!-- Generator: Sketch 49.2 (51160) - http://www.bohemiancoding.com/sketch -->
    <title>Page 1</title>
    <desc>Created with Sketch.</desc>
    <defs></defs>
    <g id="Quantor.-Landing-page" stroke="none" stroke-width="1" fill="none" fill-rule="evenodd" stroke-linecap="square">
        <g id="ТРЦ-ЩУКА---09---Adminka---1280" transform="translate(-799.000000, -34.000000)" stroke="#FFFFFF" stroke-width="3">
            <g id="Page-1" transform="translate(800.000000, 35.000000)">
                <path d="M18.4241,18.4247 C14.3241,22.5257 7.6761,22.5257 3.5751,18.4247 C-0.5249,14.3237 -0.5249,7.6757 3.5751,3.5757 C7.6761,-0.5253 14.3241,-0.5253 18.4241,3.5757 C22.5251,7.6757 22.5251,14.3237 18.4241,18.4247 Z" id="Stroke-1"></path>
                <path d="M19.4241,19.4237 L23.5761,23.5757" id="Stroke-3"></path>
            </g>
        </g>
    </g>
</svg>